<svg id="logo" viewBox="0 0 129 44" fill="none" xmlns="http://www.w3.org/2000/svg">
  <path d="M0 43.5649H4.98541V21.1457H0V43.5649Z" fill="#007aff"/>
  <path d="M7.73973 43.5649H12.5953V29.0538H14.6726L10.1545 25.9776L24.1241 43.5649H28.4474V21.1457H23.6048V35.5481H21.5275L26.0455 38.5933L12.076 21.1457H7.73973V43.5649Z" fill="#007aff"/>
  <path d="M64.6115 44C66.9917 44 69.0603 43.5287 70.8173 42.5861C72.5743 41.6332 73.9332 40.2867 74.8939 38.5466C75.8633 36.7962 76.348 34.735 76.348 32.3631V32.332C76.348 29.9601 75.8633 27.9041 74.8939 26.164C73.9332 24.4239 72.5743 23.0774 70.8173 22.1245C69.0603 21.1716 66.9917 20.6952 64.6115 20.6952C62.2399 20.6952 60.1757 21.1716 58.4187 22.1245C56.6616 23.0774 55.2984 24.4239 54.3291 26.164C53.3683 27.9041 52.888 29.9601 52.888 32.332V32.3631C52.888 34.735 53.3683 36.7962 54.3291 38.5466C55.2898 40.2867 56.6487 41.6332 58.4057 42.5861C60.1713 43.5287 62.2399 44 64.6115 44ZM64.6115 39.3545C63.2613 39.3545 62.0885 39.0697 61.0931 38.5C60.0978 37.9304 59.3275 37.1225 58.7822 36.0763C58.2369 35.0302 57.9643 33.7925 57.9643 32.3631V32.332C57.9643 30.9027 58.2369 29.6649 58.7822 28.6188C59.3275 27.5727 60.0978 26.7699 61.0931 26.2106C62.0885 25.641 63.2613 25.3561 64.6115 25.3561C65.9617 25.3561 67.1345 25.641 68.1298 26.2106C69.1252 26.7803 69.8955 27.5882 70.4408 28.6343C70.9947 29.6701 71.2717 30.9027 71.2717 32.332V32.3631C71.2717 33.7821 70.999 35.0198 70.4538 36.0763C69.9085 37.1225 69.1382 37.9304 68.1428 38.5C67.1475 39.0697 65.9703 39.3545 64.6115 39.3545Z" fill="#007aff"/>
  <path d="M78.8537 43.5649H83.8391V21.1457H78.8537V43.5649Z" fill="#007aff"/>
  <path d="M97.8216 44C99.8383 44 101.639 43.6219 103.222 42.8658C104.806 42.0993 106.087 41.0273 107.065 39.6497C108.043 38.2722 108.636 36.6512 108.844 34.7868L108.87 34.6004H103.937L103.898 34.7402C103.673 35.7242 103.283 36.5631 102.729 37.2571C102.175 37.9407 101.487 38.4586 100.665 38.8108C99.8426 39.1629 98.9078 39.339 97.8605 39.339C96.5276 39.339 95.3765 39.0542 94.4071 38.4845C93.4464 37.9148 92.7064 37.1069 92.187 36.0608C91.6677 35.0043 91.4081 33.7666 91.4081 32.3476V32.3165C91.4081 30.8975 91.6677 29.6701 92.187 28.6343C92.7064 27.5882 93.4464 26.7803 94.4071 26.2106C95.3765 25.641 96.5276 25.3561 97.8605 25.3561C98.9338 25.3561 99.8772 25.5322 100.691 25.8844C101.513 26.2365 102.192 26.7492 102.729 27.4225C103.274 28.0957 103.66 28.9088 103.885 29.8617L103.924 30.0326H108.857L108.844 29.8617C108.636 28.0077 108.043 26.3971 107.065 25.0299C106.087 23.6523 104.806 22.5854 103.222 21.8293C101.647 21.0732 99.8469 20.6952 97.8216 20.6952C95.4587 20.6952 93.4161 21.1664 91.6937 22.109C89.98 23.0515 88.6557 24.3929 87.7209 26.1329C86.7948 27.873 86.3318 29.9394 86.3318 32.332V32.3476C86.3318 34.7402 86.7948 36.8066 87.7209 38.5466C88.6557 40.2867 89.98 41.6332 91.6937 42.5861C93.4161 43.5287 95.4587 44 97.8216 44Z" fill="#007aff"/>
  <path d="M111.259 43.5649H128.5V39.1836H116.244V34.2119H127.656V30.2191H116.244V25.527H128.5V21.1457H111.259V43.5649Z" fill="#007aff"/>
  <path d="M38.8504 43.3523H45.1502L59.915 4.51099H54.1184L42.0103 37.7149L35.8089 21.1129H30.3445L38.8504 43.3523Z" fill="#007aff"/>
  <g opacity="0.5">
    <path d="M9.5265 16.1839C10.9096 16.1839 12.1586 16.0078 13.2736 15.6556C14.3885 15.3033 15.3412 14.8002 16.1315 14.1461C16.9219 13.492 17.5288 12.7121 17.9522 11.8064C18.3756 10.8935 18.5873 9.87997 18.5873 8.76582V7.41806H9.66411V9.96263H14.565L14.5544 10.0597C14.4132 10.6778 14.1275 11.2062 13.697 11.6446C13.2665 12.0759 12.7091 12.4066 12.0246 12.6366C11.3401 12.8594 10.5497 12.9708 9.65352 12.9708C8.81378 12.9708 8.05519 12.863 7.37775 12.6474C6.70031 12.4245 6.11813 12.1011 5.63122 11.677C5.15137 11.2529 4.78089 10.7353 4.5198 10.1244C4.26576 9.51338 4.13874 8.81614 4.13874 8.03264V8.02186C4.13874 6.99397 4.36455 6.12422 4.81618 5.4126C5.27486 4.69379 5.91349 4.1511 6.73206 3.78451C7.55769 3.41073 8.51387 3.22384 9.6006 3.22384C10.7649 3.22384 11.7494 3.42151 12.5538 3.81685C13.3653 4.21219 13.951 4.7513 14.3109 5.43416L14.3639 5.52042H18.4708L18.4391 5.39103C18.178 4.34158 17.6417 3.41432 16.8302 2.60926C16.0257 1.79701 14.999 1.16087 13.7499 0.700834C12.5009 0.233612 11.0825 0 9.49475 0C7.56122 0 5.88173 0.327056 4.45629 0.981168C3.0379 1.62809 1.94058 2.55176 1.16435 3.75216C0.388117 4.95256 0 6.37939 0 8.03264V8.04342C0 9.31571 0.222285 10.455 0.666855 11.4613C1.11143 12.4605 1.75005 13.3123 2.58274 14.0167C3.41543 14.7139 4.41748 15.2494 5.58888 15.6232C6.76029 15.997 8.07283 16.1839 9.5265 16.1839Z" fill="#007aff"/>
    <path d="M27.3411 16.1515C28.2302 16.1515 29.0523 16.0617 29.8074 15.882C30.5624 15.7095 31.2328 15.4579 31.8185 15.1272C32.4042 14.7894 32.8911 14.3869 33.2793 13.9197C33.6744 13.4452 33.9532 12.9169 34.1155 12.3347L34.1472 12.2161H30.506L30.4742 12.2808C30.326 12.5467 30.1038 12.7768 29.8074 12.9708C29.518 13.1649 29.1723 13.3159 28.77 13.4237C28.3678 13.5315 27.9338 13.5854 27.4681 13.5854C26.7483 13.5854 26.1097 13.4776 25.5522 13.2619C25.0018 13.0463 24.5678 12.7013 24.2502 12.2269C23.9327 11.7525 23.7739 11.1307 23.7739 10.3616V9.75777C23.7739 9.06772 23.9115 8.48908 24.1867 8.02186C24.469 7.54745 24.8712 7.19164 25.3934 6.95443C25.9156 6.71004 26.5437 6.58784 27.2776 6.58784C27.9832 6.58784 28.5866 6.71004 29.0876 6.95443C29.5886 7.19883 29.9697 7.55104 30.2308 8.01108C30.4989 8.46392 30.633 9.01022 30.633 9.64995V10.3724L31.7762 8.86286H22.0168V10.9222H34.306V10.1783C34.306 8.93474 34.0167 7.85294 33.438 6.93287C32.8664 6.00561 32.0479 5.28681 30.9823 4.77646C29.9168 4.26611 28.6536 4.00734 27.1929 4.00015C25.7604 3.99296 24.5043 4.23735 23.4246 4.73333C22.3449 5.2293 21.5017 5.93373 20.8948 6.84661C20.295 7.7595 19.9951 8.84489 19.9951 10.1028V10.1136C19.9951 11.3859 20.2915 12.4749 20.8842 13.3805C21.477 14.2791 22.3202 14.9655 23.414 15.4399C24.5149 15.9143 25.8239 16.1515 27.3411 16.1515Z" fill="#007aff"/>
    <path d="M42.4353 16.0545C42.8657 16.0545 43.2786 16.0365 43.6737 16.0006C44.0689 15.9646 44.4253 15.9215 44.7428 15.8712V13.2188C44.5805 13.2476 44.3935 13.2727 44.1818 13.2943C43.9772 13.3159 43.7584 13.3266 43.5255 13.3266C42.7281 13.3266 42.1601 13.1865 41.8214 12.9061C41.4826 12.6258 41.3133 12.1478 41.3133 11.4721V6.99756H44.7428V4.28048H41.3027V1.47714H37.3862V4.28048H35.1316V6.99756H37.3862V11.9897C37.3862 13.4201 37.7885 14.4552 38.5929 15.0949C39.3974 15.7346 40.6782 16.0545 42.4353 16.0545Z" fill="#007aff"/>
  </g>
</svg>
